^C:\USERS\AFITADMIN\DOCUMENTS\VISUAL STUDIO 2015\PROJECTS\KINECTFUSIONBASICS-D2D\IMAGERENDERER.CPP|C:\USERS\AFITADMIN\DOCUMENTS\VISUAL STUDIO 2015\PROJECTS\KINECTFUSIONBASICS-D2D\KINECTFUSIONBASICS.CPP|C:\USERS\AFITADMIN\DOCUMENTS\VISUAL STUDIO 2015\PROJECTS\KINECTFUSIONBASICS-D2D\TIMER.CPP
C:\USERS\AFITADMIN\DOCUMENTS\VISUAL STUDIO 2015\PROJECTS\KINECTFUSIONBASICS-D2D\X64\RELEASE\VC140.PDB
C:\USERS\AFITADMIN\DOCUMENTS\VISUAL STUDIO 2015\PROJECTS\KINECTFUSIONBASICS-D2D\X64\RELEASE\TIMER.OBJ
C:\USERS\AFITADMIN\DOCUMENTS\VISUAL STUDIO 2015\PROJECTS\KINECTFUSIONBASICS-D2D\X64\RELEASE\IMAGERENDERER.OBJ
^C:\USERS\AFITADMIN\DOCUMENTS\VISUAL STUDIO 2015\PROJECTS\KINECTFUSIONBASICS-D2D\IMAGERENDERER.CPP
C:\USERS\AFITADMIN\DOCUMENTS\VISUAL STUDIO 2015\PROJECTS\KINECTFUSIONBASICS-D2D\X64\RELEASE\IMAGERENDERER.OBJ
^C:\USERS\AFITADMIN\DOCUMENTS\VISUAL STUDIO 2015\PROJECTS\KINECTFUSIONBASICS-D2D\TIMER.CPP
C:\USERS\AFITADMIN\DOCUMENTS\VISUAL STUDIO 2015\PROJECTS\KINECTFUSIONBASICS-D2D\X64\RELEASE\TIMER.OBJ
